11:02:27 230	瑞芯微开发工具 v2.5.4.0 start run
11:05:25 169	Layer<3-5>:测试设备开始
11:05:25 185	Layer<3-5>:测试设备成功
11:05:25 199	<LAYER 3-5> ERROR:ReadCapability-->RKU_ReadCapability failed,err(-8)
11:05:25 207	Layer<3-5>:校验芯片开始
11:05:25 217	Layer<3-5>:校验芯片成功
11:05:25 227	Layer<3-5>:获取FlashInfo开始
11:05:25 234	<LAYER 3-5> INFO:FlashInfo: 00 00 E9 00 00 04 04 00 28 00 01
11:05:25 242	<LAYER 3-5> INFO:GetFlashInfo-->Emmc storage.
11:05:25 251	Layer<3-5>:获取FlashInfo成功
11:05:25 261	Layer<3-5>:准备IDB开始
11:05:25 268	<LAYER 3-5> INFO:CS(1)		(7456MB)		(SAMSUNG)
11:05:25 291	Layer<3-5>:准备IDB成功
11:05:25 302	Layer<3-5>:下载IDB开始
11:05:25 463	Layer<3-5>:下载IDB成功
11:05:25 471	Layer<3-5>:重启设备开始
11:05:26 478	Layer<3-5>:重启设备成功
11:05:26 485	Layer<3-5>:等待Loader开始
11:05:26 985	Layer<3-5>:等待Loader成功
11:05:26 989	Layer<3-5>:测试设备开始
11:05:26 994	Layer<3-5>:测试设备成功
11:05:26 998	Layer<3-5>:下载固件开始
11:05:27 006	<LAYER 3-5> INFO:FlashInfo: 00 00 E9 00 00 04 04 00 28 00 01
11:05:27 010	<LAYER 3-5> INFO:GetFlashInfo-->Emmc storage.
11:05:27 013	<LAYER 3-5> INFO:Start download image,total=2709881524,band=64,DirectLBA=0,First4Access=0,Gpt=0
11:05:27 035	<LAYER 3-5> INFO:Start to download trust,offset=0x4000,size=4194304
11:05:27 248	<LAYER 3-5> INFO:Start to download uboot,offset=0x2000,size=4194304
11:05:27 469	<LAYER 3-5> INFO:Start to download misc,offset=0x6000,size=49152
11:05:27 488	<LAYER 3-5> INFO:Start to download resource,offset=0x8000,size=253440
11:05:27 511	<LAYER 3-5> INFO:Start to download kernel,offset=0x10000,size=7931116
11:05:27 929	<LAYER 3-5> INFO:Start to download boot,offset=0x20000,size=1383456
11:05:28 009	<LAYER 3-5> INFO:Start to download recovery,offset=0x30000,size=7514224
11:05:28 401	<LAYER 3-5> INFO:Start to download system,offset=0x18a000,size=2147483648
11:06:05 857	<LAYER 3-5> INFO:Start to download vendor,offset=0x592000,size=268435456
11:06:13 572	<LAYER 3-5> INFO:Start to download oem,offset=0x612000,size=268435456
11:06:13 681	Layer<3-5>:下载固件成功
11:06:13 689	Layer<3-5>:重启设备开始
11:06:14 700	Layer<3-5>:重启设备成功
